{
  "token": "npx hardhat verify --network rinkeby ----constructor-args scripts/verify/token.ts 0xA80Bf5b68e044a8f069baDE65ECDf39B278B5a59",
  "priceFeed": "npx hardhat verify --network rinkeby ----constructor-args scripts/verify/pricefeed.ts 0x0291FE770Ac7cf37AE5a0694796bc32FB3c12Abe",
  "future": "npx hardhat verify --network rinkeby ----constructor-args scripts/verify/future.ts 0xAd819925D9bc228492Af84083A5cf5839c10D17E",
  "exchange": "npx hardhat verify --network rinkeby ----constructor-args scripts/verify/exchange.ts 0x6964027792BAa93b5F7cb4e89E6f22faA4b8455e"
}
